…
“Tibbles are a modern take on data frames. They keep the features that have stood the test of time, and drop the features that used to be convenient but are now frustrating (i.e. converting character vectors to factors).” [.html]

Put all our variable we made into a tibble

every variable we made above is seperated by a comma – these will become columns in our dataset

see help(data.frame) and help(tibble) for details

example_data <- tibble(subj_num, condition, dep_var, confound, gender, age)

# print example_data by just excecuting/running the name of the object
example_data

## # A tibble: 100 x 6
##    subj_num condition dep_var confound gender   age
##       <dbl> <fct>       <dbl>    <dbl> <fct>  <dbl>
##  1        1 control    3.11      1.67  Woman     23
##  2        2 control    2.70      0.544 Man       23
##  3        3 control    3.27      2.73  Woman     23
##  4        4 control    2.05      2.35  Man       20
##  5        5 control    3.13      2.77  Woman     22
##  6        6 control    2.04      2.30  Man       21
##  7        7 control   -0.0745   -1.30  Woman     20
##  8        8 control    2.43      1.45  Man       20
##  9        9 control    3.26      1.31  Woman     21
## 10       10 control    1.66      0.429 Man       23
## # … with 90 more rows
…
mutate() adds new variables to your tibble.

we’re adding new columns to our dataset, and we’re saving this new dataset as the same name as our old one (i.e., like changing an Excel file and saving with the same name)

see help(mutate) for details

example_data <- example_data %>%
  mutate(dep_var_z = dep_var %>% scale() %>% as.numeric(),
         confound_z = confound %>% scale() %>% as.numeric())

# print example_data by just excecuting/running the name of the object
example_data

## # A tibble: 100 x 8
##    subj_num condition dep_var confound gender   age dep_var_z confound_z
##       <dbl> <fct>       <dbl>    <dbl> <fct>  <dbl>     <dbl>      <dbl>
##  1        1 control    3.11      1.67  Woman     23    -0.542     -0.280
##  2        2 control    2.70      0.544 Man       23    -0.763     -1.19 
##  3        3 control    3.27      2.73  Woman     23    -0.457      0.581
##  4        4 control    2.05      2.35  Man       20    -1.11       0.275
##  5        5 control    3.13      2.77  Woman     22    -0.534      0.606
##  6        6 control    2.04      2.30  Man       21    -1.12       0.234
##  7        7 control   -0.0745   -1.30  Woman     20    -2.25      -2.68 
##  8        8 control    2.43      1.45  Man       20    -0.909     -0.454
##  9        9 control    3.26      1.31  Woman     21    -0.465     -0.566
## 10       10 control    1.66      0.429 Man       23    -1.32      -1.28 
## # … with 90 more rows

Select specific columns

select() selects your tibble’s variables by name and in the exact order you specify.

see help(select) for details

example_data %>% 
  select(subj_num, condition, dep_var)

## # A tibble: 100 x 3
##    subj_num condition dep_var
##       <dbl> <fct>       <dbl>
##  1        1 control    3.11  
##  2        2 control    2.70  
##  3        3 control    3.27  
##  4        4 control    2.05  
##  5        5 control    3.13  
##  6        6 control    2.04  
##  7        7 control   -0.0745
##  8        8 control    2.43  
##  9        9 control    3.26  
## 10       10 control    1.66  
## # … with 90 more rows

Filter specific rows

filter() returns rows that all meet some condition you give it.

Note, == means “exactly equal to”. See ?Comparison.

see help(filter) for details

example_data %>% 
  filter(condition == "control")

## # A tibble: 50 x 8
##    subj_num condition dep_var confound gender   age dep_var_z confound_z
##       <dbl> <fct>       <dbl>    <dbl> <fct>  <dbl>     <dbl>      <dbl>
##  1        1 control    3.11      1.67  Woman     23    -0.542     -0.280
##  2        2 control    2.70      0.544 Man       23    -0.763     -1.19 
##  3        3 control    3.27      2.73  Woman     23    -0.457      0.581
##  4        4 control    2.05      2.35  Man       20    -1.11       0.275
##  5        5 control    3.13      2.77  Woman     22    -0.534      0.606
##  6        6 control    2.04      2.30  Man       21    -1.12       0.234
##  7        7 control   -0.0745   -1.30  Woman     20    -2.25      -2.68 
##  8        8 control    2.43      1.45  Man       20    -0.909     -0.454
##  9        9 control    3.26      1.31  Woman     21    -0.465     -0.566
## 10       10 control    1.66      0.429 Man       23    -1.32      -1.28 
## # … with 40 more rows
…
SPSS .sav file: read_sav()

SPSS

see help(read_sav) for details

# path to where file lives on your computer
coffee_filepath <- "data/coffee.sav"

coffee_data <- coffee_filepath %>% read_sav()

# print coffee_data by just excecuting/running the name of the object
coffee_data

## # A tibble: 138 x 3
##    image     brand      freq
##    <dbl+lbl> <dbl+lbl> <dbl>
##  1  1        1            82
##  2  2        1            96
##  3  3        1            72
##  4  4        1           101
##  5  5        1            66
##  6  6        1             6
##  7  7        1            47
##  8  8        1             1
##  9  9        1            16
## 10 10        1            60
## # … with 128 more rows
…
